{
  "appearance": {
    "interfaceKit": "cagar",
    "colorTheme": "glacier"
  },
  "static-data": [
    {
      "id": "about",
      "htmlData": "<body><section class=\"max-w-screen-lg mx-auto\"><div id=\"i6cj\" class=\"row\"><div id=\"iplw\" class=\"cell\"><div id=\"ivwi\">Tentang Kami</div><div id=\"izz8\">Rescue Panda adalah sebuah platform yang dikembangkan untuk membantu melestarikan habitat panda<br/></div><img id=\"iscg\" src=\"https://www.greeners.co/wp-content/uploads/2022/03/Panda-Raksasa-Si-Mata-Hitam-yang-Doyan-Makan.jpg\"/></div></div><div id=\"ifthj\" class=\"row\"><div id=\"irxju\" class=\"cell\"><div id=\"i62uh\">Visi dan Misi Kami</div><div id=\"ims7k\" class=\"row\"><div id=\"ijcjp\" class=\"cell\"><div id=\"i0wsn\">Rescue Panda memiliki visi untuk menjadi suatu organisasi profesional yang memiliki tujuan ikut membantu melestarikan kehidupan panda.<br/></div><div id=\"ift4t\"><b>Misi:<br/></b>1. Mengajak masyarakat umum, badan usaha &amp; komunitas lain yang memiliki jiwa sosial untuk ikut serta dalam penggalangan bantuan berupa sumbangan materi, tenaga serta pikiran yang bermanfaat bagi kelestarian panda.<br/>2. Membantu mewujudkan masyarakat indonesia yang peduli akan pelestarian hewan, khususnya panda.<br/></div></div><div id=\"iuz6a\" class=\"cell\"><img id=\"ickkd\" src=\"https://www.treehugger.com/thmb/38yOs2_WMKpehD1NPB5aBOvTEmo=/1500x0/filters:no_upscale():max_bytes(150000):strip_icc()/giant-panda-96cd8616b8304fbba5b9bbe59545ecf7.jpg\"/></div></div></div></div></section></body>",
      "cssData": "* { box-sizing: border-box; } body {margin: 0;}*{box-sizing:border-box;}body{margin-top:0px;margin-right:0px;margin-bottom:0px;margin-left:0px;}*{box-sizing:border-box;}body{margin-top:0px;margin-right:0px;margin-bottom:0px;margin-left:0px;}*{box-sizing:border-box;}body{margin-top:0px;margin-right:0px;margin-bottom:0px;margin-left:0px;}*{box-sizing:border-box;}body{margin-top:0px;margin-right:0px;margin-bottom:0px;margin-left:0px;}*{box-sizing:border-box;}body{margin-top:0px;margin-right:0px;margin-bottom:0px;margin-left:0px;}*{box-sizing:border-box;}body{margin-top:0px;margin-right:0px;margin-bottom:0px;margin-left:0px;}*{box-sizing:border-box;}body{margin-top:0px;margin-right:0px;margin-bottom:0px;margin-left:0px;}*{box-sizing:border-box;}body{margin-top:0px;margin-right:0px;margin-bottom:0px;margin-left:0px;}*{box-sizing:border-box;}body{margin-top:0px;margin-right:0px;margin-bottom:0px;margin-left:0px;}*{box-sizing:border-box;}body{margin-top:0px;margin-right:0px;margin-bottom:0px;margin-left:0px;}*{box-sizing:border-box;}body{margin-top:0px;margin-right:0px;margin-bottom:0px;margin-left:0px;}*{box-sizing:border-box;}body{margin-top:0px;margin-right:0px;margin-bottom:0px;margin-left:0px;}.row{display:flex;justify-content:flex-start;align-items:stretch;flex-wrap:nowrap;padding-top:10px;padding-right:10px;padding-bottom:10px;padding-left:10px;}.cell{min-height:75px;flex-grow:1;flex-basis:100%;}#ivwi{padding-top:10px;padding-right:10px;padding-bottom:10px;padding-left:10px;font-size:28px;text-align:center;font-weight:700;}#iscg{color:black;width:959px;height:397px;margin-top:36px;margin-right:0px;margin-bottom:0px;margin-left:0px;}#iplw{display:flex;flex-direction:column;align-items:center;}#izz8{padding-top:10px;padding-right:10px;padding-bottom:10px;padding-left:10px;}#i62uh{padding-top:10px;padding-right:10px;padding-bottom:10px;padding-left:10px;font-size:24px;text-align:center;font-weight:700;}#i0wsn{padding-top:10px;padding-right:10px;padding-bottom:10px;padding-left:10px;text-align:justify;}#iuz6a{flex-basis:30%;display:flex;justify-content:center;align-items:center;}#ijcjp{flex-basis:70%;}#ickkd{color:black;width:284px;height:226px;}#ift4t{padding:10px;}@media (max-width: 768px){.row{flex-wrap:wrap;}}"
    },
    {
      "id": "partners",
      "htmlData": "<body><section class=\"max-w-screen-lg mx-auto\"><div id=\"izjl\">Mitra Kami</div><div id=\"ilcg\" class=\"row\"><div id=\"izcu\" class=\"cell\"><img id=\"i546\" src=\"https://www.worldwildlife.org/assets/structure/unique/logo-c562409bb6158bf64e5f8b1be066dbd5983d75f5ce7c9935a5afffbcc03f8e5d.png\"/><div id=\"ima7\">WWF</div></div><div id=\"ij664\" class=\"cell\"><img src=\"https://www.pandasinternational.org/wp-content/uploads/2012/10/PI-2010-LOGO-HI-RES-150x150.png\" id=\"i3s1\"/><div id=\"iiqei\">Pandas International</div></div></div></section></body>",
      "cssData": "* { box-sizing: border-box; } body {margin: 0;}*{box-sizing:border-box;}body{margin-top:0px;margin-right:0px;margin-bottom:0px;margin-left:0px;}*{box-sizing:border-box;}body{margin-top:0px;margin-right:0px;margin-bottom:0px;margin-left:0px;}*{box-sizing:border-box;}body{margin-top:0px;margin-right:0px;margin-bottom:0px;margin-left:0px;}*{box-sizing:border-box;}body{margin-top:0px;margin-right:0px;margin-bottom:0px;margin-left:0px;}*{box-sizing:border-box;}body{margin-top:0px;margin-right:0px;margin-bottom:0px;margin-left:0px;}*{box-sizing:border-box;}body{margin-top:0px;margin-right:0px;margin-bottom:0px;margin-left:0px;}#izjl{padding-top:20px;padding-right:10px;padding-bottom:20px;padding-left:10px;text-align:center;font-size:28px;font-weight:700;}.row{display:flex;justify-content:flex-start;align-items:stretch;flex-wrap:nowrap;padding-top:10px;padding-right:10px;padding-bottom:10px;padding-left:10px;}.cell{min-height:75px;flex-grow:1;flex-basis:100%;}#izcu{display:flex;justify-content:center;flex-direction:column;align-items:center;}#i546{color:black;width:197px;height:236px;}#ima7{padding-top:10px;padding-right:10px;padding-bottom:10px;padding-left:10px;font-size:20px;}#i3s1{color:black;width:218px;height:218px;}#iiqei{padding-top:10px;padding-right:10px;padding-bottom:10px;padding-left:10px;font-size:20px;}#ij664{display:flex;justify-content:center;flex-direction:column;align-items:center;}@media (max-width: 768px){.row{flex-wrap:wrap;}}"
    },
    {
      "id": "contact",
      "htmlData": "<body><section id=\"ia35\" class=\"max-w-screen-lg mx-auto\"><div id=\"ik66\" class=\"row\"><div id=\"i7dn\" class=\"cell\"><div id=\"i4ag\">Kontak Rescue Panda</div><div id=\"izb4\" class=\"row\"><div id=\"iat8\" class=\"cell\"><div id=\"ig76\">Anda dapat menghubungi kami melalui</div><div id=\"iufiu\"><b>Nomor Telepon</b><b>:</b> 081234567823</div><div id=\"ie8vs\"><b>Email:</b> rescue.panda@amanah.cs.ui.ac.id</div><div id=\"i1s6k\"><b>Alamat:</b> Jl. Prof. DR. Sudjono D. Pusponegoro, Pondok Cina, Kecamatan Beji, Kota Depok, Jawa Barat 16425</div></div><div id=\"i47j\" class=\"cell\"><img id=\"ilg3k\" src=\"https://asset.kompas.com/crops/ncgvDkq11ovx_624dxbv483x_iY=/0x0:648x432/750x500/data/photo/2021/10/05/615c371c61b81.jpg\"/></div></div></div></div></section></body>",
      "cssData": "* { box-sizing: border-box; } body {margin: 0;}*{box-sizing:border-box;}body{margin-top:0px;margin-right:0px;margin-bottom:0px;margin-left:0px;}*{box-sizing:border-box;}body{margin-top:0px;margin-right:0px;margin-bottom:0px;margin-left:0px;}*{box-sizing:border-box;}body{margin-top:0px;margin-right:0px;margin-bottom:0px;margin-left:0px;}*{box-sizing:border-box;}body{margin-top:0px;margin-right:0px;margin-bottom:0px;margin-left:0px;}.row{display:flex;justify-content:flex-start;align-items:stretch;flex-wrap:nowrap;padding-top:10px;padding-right:10px;padding-bottom:10px;padding-left:10px;}.cell{min-height:75px;flex-grow:1;flex-basis:100%;}#i4ag{padding-top:10px;padding-right:10px;padding-bottom:10px;padding-left:10px;font-size:28px;text-align:center;font-weight:700;}#iat8{flex-basis:41.79%;}#i47j{flex-basis:68.15%;display:flex;justify-content:flex-end;align-items:center;}#ig76{padding-top:10px;padding-right:10px;padding-bottom:10px;padding-left:10px;}#iufiu{padding-top:10px;padding-right:10px;padding-bottom:10px;padding-left:10px;}#ie8vs{padding-top:10px;padding-right:10px;padding-bottom:10px;padding-left:10px;}#ilg3k{color:black;width:467px;height:276px;}#i1s6k{padding-top:10px;padding-right:10px;padding-bottom:10px;padding-left:10px;}@media (max-width: 768px){.row{flex-wrap:wrap;}}"
    },
    {
      "id": "maps",
      "htmlData": "<body><section class=\"max-w-screen-lg mx-auto\"><div class=\"row\"><div id=\"ihdv\" class=\"cell\"><div id=\"icln\">Lokasi Kami</div><img id=\"idx7\" src=\"https://www.treehugger.com/thmb/38yOs2_WMKpehD1NPB5aBOvTEmo=/1500x0/filters:no_upscale():max_bytes(150000):strip_icc()/giant-panda-96cd8616b8304fbba5b9bbe59545ecf7.jpg\"/><a href=\"https://goo.gl/maps/nzWYxW9PVuBo6g5d7\" target=\"_blank\" id=\"ihb6\">https://goo.gl/maps/nzWYxW9PVuBo6g5d7</a></div></div></section></body>",
      "cssData": "* { box-sizing: border-box; } body {margin: 0;}*{box-sizing:border-box;}body{margin-top:0px;margin-right:0px;margin-bottom:0px;margin-left:0px;}*{box-sizing:border-box;}body{margin-top:0px;margin-right:0px;margin-bottom:0px;margin-left:0px;}.row{display:flex;justify-content:flex-start;align-items:stretch;flex-wrap:nowrap;padding-top:10px;padding-right:10px;padding-bottom:10px;padding-left:10px;}.cell{min-height:75px;flex-grow:1;flex-basis:100%;}#icln{padding-top:10px;padding-right:10px;padding-bottom:10px;padding-left:10px;font-size:28px;text-align:center;font-weight:700;}#idx7{color:black;width:484px;height:275px;padding-top:0px;padding-right:0px;padding-bottom:0px;padding-left:0px;margin-top:20px;margin-right:0px;margin-bottom:20px;margin-left:0px;}#ihdv{display:flex;flex-direction:column;align-items:center;}#ihb6{color:rgb(217, 131, 166);}@media (max-width: 768px){.row{flex-wrap:wrap;}}"
    },
    {
      "id": "bank-account",
      "htmlData": "<body><section class=\"max-w-screen-lg mx-auto\"><div id=\"irou\" class=\"row\"><div class=\"cell\"><div id=\"i01s\">Informasi Rekening</div><div id=\"i7cs\" class=\"row\"><div id=\"id3f\" class=\"cell\"><img id=\"i6mj\" src=\"https://www.pandasinternational.org/wptemp/wp-content/uploads/2012/10/slider31.jpg\"/></div><div id=\"ihok5\" class=\"cell\"><div id=\"ie402\">BCA 6789456326 a/n Rescue Panda</div><div id=\"ipx1i\">Pastikan Anda tidak salah transfer dan jangan lupa simpan bukti transfer Anda</div></div></div></div></div></section></body>",
      "cssData": "* { box-sizing: border-box; } body {margin: 0;}*{box-sizing:border-box;}body{margin-top:0px;margin-right:0px;margin-bottom:0px;margin-left:0px;}*{box-sizing:border-box;}body{margin-top:0px;margin-right:0px;margin-bottom:0px;margin-left:0px;}*{box-sizing:border-box;}body{margin-top:0px;margin-right:0px;margin-bottom:0px;margin-left:0px;}*{box-sizing:border-box;}body{margin-top:0px;margin-right:0px;margin-bottom:0px;margin-left:0px;}.row{display:flex;justify-content:flex-start;align-items:stretch;flex-wrap:nowrap;padding-top:10px;padding-right:10px;padding-bottom:10px;padding-left:10px;}.cell{min-height:75px;flex-grow:1;flex-basis:100%;}#i01s{padding-top:10px;padding-right:10px;padding-bottom:10px;padding-left:10px;text-align:center;font-size:28px;font-weight:700;}#id3f{display:flex;flex-basis:34.14%;flex-direction:column;}#i6mj{color:black;width:203px;height:229px;align-self:center;}#ie402{padding-top:10px;padding-right:10px;padding-bottom:10px;padding-left:10px;}#ihok5{display:block;}#ipx1i{padding:10px;}@media (max-width: 768px){.row{flex-wrap:wrap;}}"
    }
  ]
}